<?xml version="1.0" encoding="UTF-8"?>
<svg width="815px" height="807px" viewBox="0 0 815 807" version="1.1" xmlns="http://www.w3.org/2000/svg" xmlns:xlink="http://www.w3.org/1999/xlink">
    <!-- Generator: Sketch 42 (36781) - http://www.bohemiancoding.com/sketch -->
    <title>Group 17</title>
    <desc>Created with Sketch.</desc>
    <defs>
        <circle id="path-1" cx="413.5" cy="404.5" r="224.5"></circle>
        <mask id="mask-2" maskContentUnits="userSpaceOnUse" maskUnits="objectBoundingBox" x="0" y="0" width="449" height="449" fill="white">
            <use xlink:href="#path-1"></use>
        </mask>
        <circle id="path-3" cx="412" cy="403" r="165"></circle>
        <mask id="mask-4" maskContentUnits="userSpaceOnUse" maskUnits="objectBoundingBox" x="0" y="0" width="330" height="330" fill="white">
            <use xlink:href="#path-3"></use>
        </mask>
        <circle id="path-5" cx="413" cy="404" r="306"></circle>
        <mask id="mask-6" maskContentUnits="userSpaceOnUse" maskUnits="objectBoundingBox" x="0" y="0" width="612" height="612" fill="white">
            <use xlink:href="#path-5"></use>
        </mask>
        <circle id="path-7" cx="412.5" cy="403.5" r="403.5"></circle>
        <mask id="mask-8" maskContentUnits="userSpaceOnUse" maskUnits="objectBoundingBox" x="0" y="0" width="807" height="807" fill="white">
            <use xlink:href="#path-7"></use>
        </mask>
        <circle id="path-9" cx="413.5" cy="404.5" r="133.5"></circle>
        <mask id="mask-10" maskContentUnits="userSpaceOnUse" maskUnits="objectBoundingBox" x="0" y="0" width="267" height="267" fill="white">
            <use xlink:href="#path-9"></use>
        </mask>
        <circle id="path-11" cx="133.581964" cy="453.140674" r="5.55017516"></circle>
        <mask id="mask-12" maskContentUnits="userSpaceOnUse" maskUnits="objectBoundingBox" x="0" y="0" width="11.1003503" height="11.1003503" fill="white">
            <use xlink:href="#path-11"></use>
        </mask>
        <circle id="path-13" cx="128.404252" cy="232.0033" r="5.55017516"></circle>
        <mask id="mask-14" maskContentUnits="userSpaceOnUse" maskUnits="objectBoundingBox" x="0" y="0" width="11.1003503" height="11.1003503" fill="white">
            <use xlink:href="#path-13"></use>
        </mask>
        <ellipse id="path-15" cx="415.020492" cy="553.42763" rx="5.55017516" ry="5.55017516"></ellipse>
        <mask id="mask-16" maskContentUnits="userSpaceOnUse" maskUnits="objectBoundingBox" x="0" y="0" width="11.1003503" height="11.1003503" fill="white">
            <use xlink:href="#path-15"></use>
        </mask>
        <ellipse id="path-17" cx="6.91151556" cy="412.355182" rx="5.55017516" ry="5.55017516"></ellipse>
        <mask id="mask-18" maskContentUnits="userSpaceOnUse" maskUnits="objectBoundingBox" x="0" y="0" width="11.1003503" height="11.1003503" fill="white">
            <use xlink:href="#path-17"></use>
        </mask>
        <circle id="path-19" cx="585.890677" cy="422.981446" r="5.55017516"></circle>
        <mask id="mask-20" maskContentUnits="userSpaceOnUse" maskUnits="objectBoundingBox" x="0" y="0" width="11.1003503" height="11.1003503" fill="white">
            <use xlink:href="#path-19"></use>
        </mask>
        <ellipse id="path-21" cx="680.505678" cy="237.224401" rx="5.55017516" ry="5.55017516"></ellipse>
        <mask id="mask-22" maskContentUnits="userSpaceOnUse" maskUnits="objectBoundingBox" x="0" y="0" width="11.1003503" height="11.1003503" fill="white">
            <use xlink:href="#path-21"></use>
        </mask>
    </defs>
    <g id="Page-1" stroke="none" stroke-width="1" fill="none" fill-rule="evenodd">
        <g id="Pricing-page-Copy" transform="translate(-271.000000, -1343.000000)">
            <g id="Group-17" transform="translate(270.000000, 1343.000000)">
                <g id="Group-6">
                    <use id="Oval-5-Copy-5" stroke-opacity="0.408967391" stroke="#B4D9FF" mask="url(#mask-2)" stroke-width="2.42" stroke-dasharray="3.3,3.3" opacity="0.54540308" xlink:href="#path-1"></use>
                    <use id="Oval-5-Copy-6" stroke-opacity="0.264775815" stroke="#B4D9FF" mask="url(#mask-4)" stroke-width="1.782" stroke-dasharray="3,3" opacity="0.692651721" xlink:href="#path-3"></use>
                    <use id="Oval-5-Copy-7" stroke-opacity="0.264775815" stroke="#B4D9FF" mask="url(#mask-6)" stroke-width="3.3" stroke-dasharray="3,3" opacity="0.381000906" xlink:href="#path-5"></use>
                    <use id="Oval-5-Copy-8" stroke-opacity="0.264775815" stroke="#B4D9FF" mask="url(#mask-8)" stroke-width="4.356" stroke-dasharray="3.959999895095826,3.959999895095826" opacity="0.175837862" xlink:href="#path-7"></use>
                    <use id="Oval-5-Copy-9" stroke-opacity="0.264775815" stroke="#B4D9FF" mask="url(#mask-10)" stroke-width="1.44" stroke-dasharray="3,3" opacity="0.83129529" xlink:href="#path-9"></use>
                    <circle id="Oval-6-Copy-15" fill="#295177" cx="532" cy="344" r="5"></circle>
                    <circle id="Oval-6-Copy-16" fill="#295177" cx="502" cy="541" r="5"></circle>
                    <circle id="Oval-6-Copy-17" fill="#295177" cx="288" cy="361" r="5"></circle>
                    <circle id="Oval-6-Copy-18" fill="#295177" cx="298" cy="211" r="5"></circle>
                    <circle id="Oval-6-Copy-19" fill="#295177" opacity="0.619961504" cx="232" cy="650" r="5"></circle>
                    <circle id="Oval-6-Copy-20" fill="#295177" cx="638" cy="400" r="5"></circle>
                    <circle id="Oval-6-Copy-21" fill="#295177" opacity="0.584182518" cx="126" cy="300" r="5"></circle>
                    <circle id="Oval-6-Copy-22" fill="#295177" opacity="0.402853261" cx="13" cy="450" r="5"></circle>
                    <use id="Oval-6-Copy-23" stroke="#435A70" mask="url(#mask-12)" stroke-width="2" transform="translate(133.581964, 453.140674) rotate(-190.000000) translate(-133.581964, -453.140674) " xlink:href="#path-11"></use>
                    <use id="Oval-6-Copy-24" stroke="#435A70" mask="url(#mask-14)" stroke-width="2" transform="translate(128.404252, 232.003300) rotate(-190.000000) translate(-128.404252, -232.003300) " xlink:href="#path-13"></use>
                    <use id="Oval-6-Copy-26" stroke="#435A70" mask="url(#mask-16)" stroke-width="2" transform="translate(415.020492, 553.427630) rotate(-190.000000) translate(-415.020492, -553.427630) " xlink:href="#path-15"></use>
                    <use id="Oval-6-Copy-27" stroke="#435A70" mask="url(#mask-18)" stroke-width="2" transform="translate(6.911516, 412.355182) rotate(-190.000000) translate(-6.911516, -412.355182) " xlink:href="#path-17"></use>
                    <use id="Oval-6-Copy-28" stroke="#435A70" mask="url(#mask-20)" stroke-width="2" transform="translate(585.890677, 422.981446) rotate(-190.000000) translate(-585.890677, -422.981446) " xlink:href="#path-19"></use>
                    <use id="Oval-6-Copy-29" stroke="#435A70" mask="url(#mask-22)" stroke-width="2" transform="translate(680.505678, 237.224401) rotate(-190.000000) translate(-680.505678, -237.224401) " xlink:href="#path-21"></use>
                </g>
                <g id="Group-11" opacity="0.479846014" transform="translate(347.000000, 338.000000)" stroke="#2E557B" stroke-linecap="round">
                    <path d="M66.6143,33.7075 C76.0163,33.7075 83.6383,28.3185 83.6383,21.6725 C83.6383,15.0255 76.0163,9.6375 66.6143,9.6375 C57.2123,9.6375 49.5893,15.0255 49.5893,21.6725 C49.5893,28.3185 57.2123,33.7075 66.6143,33.7075 Z" id="Stroke-1" stroke-width="1.5"></path>
                    <path d="M16.6338,23.8462 C12.1388,29.6102 9.5818,36.2352 9.5818,43.2822 C9.5818,65.5472 35.1168,83.5982 66.6138,83.5982 C98.1128,83.5982 123.6478,65.5472 123.6478,43.2822 C123.6478,35.9302 120.8628,29.0372 115.9998,23.1022 L16.6338,23.8462 Z M66.6138,66.6162 C92.3478,66.6162 113.2098,51.8672 113.2098,33.6762 C113.2098,15.4852 92.3478,0.7372 66.6138,0.7372 C40.8808,0.7372 20.0198,15.4852 20.0198,33.6762 C20.0198,51.8672 40.8808,66.6162 66.6138,66.6162 Z M66.6138,49.6152 C84.7998,49.6152 99.5428,39.2032 99.5428,26.3602 C99.5428,13.5172 84.7998,3.1062 66.6138,3.1062 C48.4288,3.1062 33.6858,13.5172 33.6858,26.3602 C33.6858,39.2032 48.4288,49.6152 66.6138,49.6152 Z" id="Stroke-3"></path>
                    <path d="M132.3867,66.8892 C132.3867,92.4402 102.9397,113.1532 66.6147,113.1532 C30.2897,113.1532 0.8427,92.4402 0.8427,66.8892" id="Stroke-5" stroke-width="1.5"></path>
                    <path d="M127.125,92.8911 C118.733,110.8011 94.812,123.7251 66.614,123.7251 C38.415,123.7251 14.494,110.8011 6.103,92.8911 M127.25,40.8301 C129.252,45.1801 130.334,49.8231 130.334,54.6411 C130.334,79.3931 101.806,99.4591 66.614,99.4591 C31.424,99.4591 2.895,79.3931 2.895,54.6411 C2.895,49.8231 3.977,45.1801 5.978,40.8301" id="Stroke-7"></path>
                    <path d="M50.1211,18.6099 C24.7731,18.2219 8.4911,32.4559 5.5881,41.9349 M16.6891,23.8009 C23.2931,16.7989 35.0221,12.3579 51.8511,15.6939 M28.9791,12.6289 C33.9401,9.1129 44.3021,7.9739 54.3561,13.3269 M58.0461,11.2759 C53.0411,6.6569 46.7501,4.3309 42.1871,5.5189 M62.1441,10.0919 C59.8451,5.5829 57.6811,2.2809 54.8571,1.8479 M66.6081,9.6369 L66.6081,0.8009 M66.6081,33.7309 L66.6081,132.4299 M110.7111,115.4259 C100.3061,124.4299 84.4181,130.1859 66.6141,130.1859 C49.1221,130.1859 33.4771,124.6299 23.0681,115.8949" id="Stroke-9"></path>
                    <path d="M66.6143,132.479 C102.9893,132.479 132.4783,102.991 132.4783,66.616 C132.4783,30.241 102.9893,0.75 66.6143,0.75 C30.2393,0.75 0.7503,30.241 0.7503,66.616 C0.7503,102.991 30.2393,132.479 66.6143,132.479 Z" id="Stroke-11" stroke-width="1.5"></path>
                    <path d="M132.3779,64.5942 C131.4679,41.5652 105.8479,25.1682 83.6649,21.7522 M128.8029,88.0672 C135.3389,68.2092 118.9979,38.4612 82.9819,24.7582 M119.8749,105.2832 C130.7839,86.5412 117.4609,50.4462 81.3889,27.7192 M106.1199,119.1762 C122.8139,104.4182 108.3519,59.1002 78.6549,30.2232 M92.5019,127.1022 C106.1199,119.1762 99.9269,72.5352 75.1029,32.0912 M71.0039,33.2762 C79.3479,58.3922 89.9119,126.3242 79.1339,131.2442 M83.1189,18.6102 C108.4659,18.2222 124.7489,32.4552 127.6519,41.9352 M116.5509,23.8012 C109.9459,16.7992 98.2179,12.3582 81.3889,15.6942 M104.2599,12.6282 C99.2999,9.1132 88.9379,7.9742 78.8839,13.3262 M75.1939,11.2762 C80.1979,6.6562 86.4889,4.3302 91.0519,5.5192 M71.0959,10.0922 C73.3949,5.5822 75.5589,2.2812 78.3829,1.8482 M0.8609,64.5942 C1.7729,41.5652 27.3929,25.1682 49.5739,21.7522 M4.4379,88.0672 C-2.0991,68.2092 14.2409,38.4612 50.2579,24.7582 M13.3639,105.2832 C2.4559,86.5412 15.7779,50.4462 51.8519,27.7192 M27.1189,119.1762 C10.4269,104.4182 24.8879,59.1002 54.5839,30.2232 M40.7379,127.1022 C27.1189,119.1762 33.3149,72.5352 58.1369,32.0912 M62.2349,33.2762 C53.8929,58.3922 43.3269,126.3242 54.1059,131.2442" id="Stroke-13"></path>
                </g>
            </g>
        </g>
    </g>
</svg>